\relax 
\providecommand\hyper@newdestlabel[2]{}
\providecommand\HyperFirstAtBeginDocument{\AtBeginDocument}
\HyperFirstAtBeginDocument{\ifx\hyper@anchor\@undefined
\global\let\oldcontentsline\contentsline
\gdef\contentsline#1#2#3#4{\oldcontentsline{#1}{#2}{#3}}
\global\let\oldnewlabel\newlabel
\gdef\newlabel#1#2{\newlabelxx{#1}#2}
\gdef\newlabelxx#1#2#3#4#5#6{\oldnewlabel{#1}{{#2}{#3}}}
\AtEndDocument{\ifx\hyper@anchor\@undefined
\let\contentsline\oldcontentsline
\let\newlabel\oldnewlabel
\fi}
\fi}
\global\let\hyper@last\relax 
\gdef\HyperFirstAtBeginDocument#1{#1}
\providecommand\HyField@AuxAddToFields[1]{}
\providecommand\HyField@AuxAddToCoFields[2]{}
\citation{Baker04lucasKanade_paper}
\citation{Wu13benchmark}
\citation{Kristan2015_vot15}
\citation{Lucas81lucasKanade}
\citation{opencv_library}
\citation{Bouguet2002Pyramidal}
\citation{Quigley09_ros}
\citation{hager1998_xvision}
\citation{Hager98parametricModels}
\citation{Harris11_robotics_sw_survey}
\@writefile{toc}{\contentsline {section}{\numberline {I}Introduction}{1}{section.1}}
\newlabel{introduction}{{I}{1}{Introduction}{section.1}{}}
\citation{Marchand05_visp}
\citation{Dick13nn}
\citation{Kwon2014_sl3_aff_pf}
\citation{Baker04lucasKanade_paper}
\citation{Dame10_mi_thesis}
\citation{Szeliski06_fclk_extended}
\citation{Lucas81lucasKanade}
\citation{Hager98parametricModels}
\citation{Shum00_fc}
\citation{Benhimane07_esm_journal}
\citation{Richa11_scv_original}
\citation{Briechle2001_ncc_template_matching}
\citation{Scandaroli2012_ncc_tracking}
\citation{Dowson08_mi_ict}
\citation{Dame10_mi_thesis}
\citation{Wang2007_ccre_registration}
\citation{Richa12_robust_similarity_measures}
\citation{Szeliski06_fclk_extended}
\citation{Richa12_robust_similarity_measures}
\citation{Lucas81lucasKanade}
\citation{Baker04lucasKanade_paper}
\citation{Lucas81lucasKanade}
\citation{Hager98parametricModels}
\citation{Shum00_fc}
\citation{Baker01ict}
\citation{Benhimane07_esm_journal}
\@writefile{toc}{\contentsline {section}{\numberline {II}Theoretical Background}{2}{section.2}}
\newlabel{background}{{II}{2}{Theoretical Background}{section.2}{}}
\@writefile{toc}{\contentsline {subsection}{\numberline {\unhbox \voidb@x \hbox {II-A}}Notation}{2}{subsection.2.1}}
\@writefile{toc}{\contentsline {subsection}{\numberline {\unhbox \voidb@x \hbox {II-B}}Registration based tracking}{2}{subsection.2.2}}
\newlabel{registration_tracking}{{\unhbox \voidb@x \hbox {II-B}}{2}{Registration based tracking}{subsection.2.2}{}}
\newlabel{tracking}{{1}{2}{Registration based tracking}{equation.2.1}{}}
\@writefile{toc}{\contentsline {subsection}{\numberline {\unhbox \voidb@x \hbox {II-C}}Gradient Descent and the Chain Rule}{2}{subsection.2.3}}
\citation{Baker04lucasKanade_paper}
\citation{Baker04lucasKanade_paper}
\citation{Isard98condensation}
\citation{Kwon2014_sl3_aff_pf}
\citation{Dick13nn}
\citation{Kwon2014_sl3_aff_pf}
\citation{Zhang2015_rklt}
\citation{Zhang2015_rklt}
\citation{Zhang2015_rklt}
\newlabel{eq_nwt_method}{{2}{3}{Gradient Descent and the Chain Rule}{equation.2.2}{}}
\newlabel{eq_jac_basic}{{3}{3}{Gradient Descent and the Chain Rule}{equation.2.3}{}}
\newlabel{eq_hess_basic}{{4}{3}{Gradient Descent and the Chain Rule}{equation.2.4}{}}
\@writefile{toc}{\contentsline {subsection}{\numberline {\unhbox \voidb@x \hbox {II-D}}Stochastic Search}{3}{subsection.2.4}}
\@writefile{toc}{\contentsline {section}{\numberline {III}System Design}{3}{section.3}}
\newlabel{system_design}{{III}{3}{System Design}{section.3}{}}
\citation{Muja2009_flann}
\@writefile{lof}{\contentsline {figure}{\numberline {1}{\ignorespaces MTF Class Diagram showing all models currently implemented. Pure and partially abstract classes are respectively shown in red and green while concrete classes are in black. Classes that are sub parts of \texttt  {AM} and \texttt  {SSM} are in yellow. The node called Composite is not an actual class but represents a conceptual affinity between its derived classes in that they combine outputs from multiple trackers to form a more robust tracker. Acronyms not defined in text: NSSD: Normalized SSD, RSCV: Reversed SCV, LSCV: Localized SCV, LRSCV: Localized RSCV, SSIM: Structural Similarity, SPSS: Sum of Pixel wise SSIM, LKLD: Localized KL Divergence, AESM: Additive ESM, RKLT: \cite  {Zhang2015_rklt}}}{4}{figure.1}}
\newlabel{fig_class_diagram}{{1}{4}{MTF Class Diagram showing all models currently implemented. Pure and partially abstract classes are respectively shown in red and green while concrete classes are in black. Classes that are sub parts of \texttt {AM} and \texttt {SSM} are in yellow. The node called Composite is not an actual class but represents a conceptual affinity between its derived classes in that they combine outputs from multiple trackers to form a more robust tracker. Acronyms not defined in text: NSSD: Normalized SSD, RSCV: Reversed SCV, LSCV: Localized SCV, LRSCV: Localized RSCV, SSIM: Structural Similarity, SPSS: Sum of Pixel wise SSIM, LKLD: Localized KL Divergence, AESM: Additive ESM, RKLT: \cite {Zhang2015_rklt}}{figure.1}{}}
\@writefile{toc}{\contentsline {subsection}{\numberline {\unhbox \voidb@x \hbox {III-A}}\em  {\texttt  {AppearanceModel}}}{4}{subsection.3.1}}
\newlabel{sec_am}{{\unhbox \voidb@x \hbox {III-A}}{4}{\em {\texttt {AppearanceModel}}}{subsection.3.1}{}}
\@writefile{toc}{\contentsline {subsubsection}{\numberline {\unhbox \voidb@x \hbox {III-A}1}Image Operations}{4}{subsubsection.3.1.1}}
\@writefile{toc}{\contentsline {subsubsection}{\numberline {\unhbox \voidb@x \hbox {III-A}2}Similarity Functions}{4}{subsubsection.3.1.2}}
\newlabel{sec_dist_feature}{{\unhbox \voidb@x \hbox {III-A}3}{4}{Distance Feature}{subsubsection.3.1.3}{}}
\@writefile{toc}{\contentsline {subsubsection}{\numberline {\unhbox \voidb@x \hbox {III-A}3}Distance Feature}{4}{subsubsection.3.1.3}}
\@writefile{lof}{\contentsline {figure}{\numberline {2}{\ignorespaces Dependency relationships between various functions in \texttt  {AM}: an arrow pointing from A to B means that A depends on B. Color of a function box denotes its type - \leavevmode {\color  {green}green}: initializing; \leavevmode {\color  {red}red}: updating; \leavevmode {\color  {blue}blue}: interfacing and \leavevmode {\color  {yellow}yellow}: accessor function. Shape of a function box represents the part of \texttt  {AM} it belongs to - rectangle: Image Operations; rounded rectangle: Similarity Functions; ellipse: Distance Feature. The numbers attached to some of the nodes refer Table \ref  {tab_am_func_specification}}}{5}{figure.2}}
\newlabel{fig_am_dependency}{{2}{5}{Dependency relationships between various functions in \texttt {AM}: an arrow pointing from A to B means that A depends on B. Color of a function box denotes its type - \textcolor {green}{green}: initializing; \textcolor {red}{red}: updating; \textcolor {blue}{blue}: interfacing and \textcolor {yellow}{yellow}: accessor function. Shape of a function box represents the part of \texttt {AM} it belongs to - rectangle: Image Operations; rounded rectangle: Similarity Functions; ellipse: Distance Feature. The numbers attached to some of the nodes refer Table \ref {tab_am_func_specification}}{figure.2}{}}
\@writefile{toc}{\contentsline {subsection}{\numberline {\unhbox \voidb@x \hbox {III-B}}\em  {\texttt  {StateSpaceModel}}}{5}{subsection.3.2}}
\newlabel{sec_ssm}{{\unhbox \voidb@x \hbox {III-B}}{5}{\em {\texttt {StateSpaceModel}}}{subsection.3.2}{}}
\newlabel{sec_ssm_warping_function}{{\unhbox \voidb@x \hbox {III-B}1}{5}{Warping Functions}{subsubsection.3.2.1}{}}
\@writefile{toc}{\contentsline {subsubsection}{\numberline {\unhbox \voidb@x \hbox {III-B}1}Warping Functions}{5}{subsubsection.3.2.1}}
\@writefile{lot}{\contentsline {table}{\numberline {I}{\ignorespaces Specifications for important methods in \texttt  {AM}. IDs in first column refer Fig. \ref  {fig_am_dependency}}}{5}{table.1}}
\newlabel{tab_am_func_specification}{{I}{5}{Specifications for important methods in \texttt {AM}. IDs in first column refer Fig. \ref {fig_am_dependency}}{table.1}{}}
\@writefile{lot}{\contentsline {table}{\numberline {II}{\ignorespaces Specifications for important methods in \texttt  {SSM}.}}{5}{table.2}}
\newlabel{tab_ssm_func_specification}{{II}{5}{Specifications for important methods in \texttt {SSM}}{table.2}{}}
\newlabel{sec_ssm_stochastic_sampler}{{\unhbox \voidb@x \hbox {III-B}2}{5}{Stochastic Sampler}{subsubsection.3.2.2}{}}
\citation{Muja2009_flann}
\@writefile{toc}{\contentsline {subsubsection}{\numberline {\unhbox \voidb@x \hbox {III-B}2}Stochastic Sampler}{6}{subsubsection.3.2.2}}
\@writefile{toc}{\contentsline {section}{\numberline {IV}Examples}{6}{section.4}}
\newlabel{examples}{{IV}{6}{Examples}{section.4}{}}
\@writefile{loa}{\contentsline {algorithm}{\numberline {1}{\ignorespaces FALK}}{6}{algorithm.1}}
\newlabel{alg_falk}{{1}{6}{Examples}{algorithm.1}{}}
\@writefile{loa}{\contentsline {algorithm}{\numberline {2}{\ignorespaces ICLK}}{6}{algorithm.2}}
\newlabel{alg:iclk}{{2}{6}{Examples}{algorithm.2}{}}
\@writefile{loa}{\contentsline {algorithm}{\numberline {3}{\ignorespaces IALK}}{6}{algorithm.3}}
\newlabel{alg_ialk}{{3}{6}{Examples}{algorithm.3}{}}
\@writefile{loa}{\contentsline {algorithm}{\numberline {4}{\ignorespaces FCLK}}{6}{algorithm.4}}
\newlabel{alg_fclk}{{4}{6}{Examples}{algorithm.4}{}}
\@writefile{loa}{\contentsline {algorithm}{\numberline {5}{\ignorespaces ESM}}{6}{algorithm.5}}
\newlabel{alg_esm}{{5}{6}{Examples}{algorithm.5}{}}
\citation{Baker04lucasKanade_paper}
\citation{Hager98parametricModels}
\citation{Benhimane07_esm_journal}
\citation{Brooks10_esm_ic}
\citation{Scandaroli2012_ncc_tracking}
\citation{Baker04lucasKanade_paper}
\citation{Benhimane07_esm_journal}
\citation{Baker04lucasKanade_paper}
\citation{Dame10_mi_thesis}
\citation{Dame10_mi_thesis}
\citation{Dame10_mi_thesis}
\citation{Scandaroli2012_ncc_tracking}
\@writefile{loa}{\contentsline {algorithm}{\numberline {6}{\ignorespaces NN}}{7}{algorithm.6}}
\newlabel{alg_nn}{{6}{7}{Examples}{algorithm.6}{}}
\@writefile{loa}{\contentsline {algorithm}{\numberline {7}{\ignorespaces PF}}{7}{algorithm.7}}
\newlabel{alg_pf}{{7}{7}{Examples}{algorithm.7}{}}
\@writefile{toc}{\contentsline {section}{\numberline {V}Conclusions and Future Work}{7}{section.5}}
\newlabel{appendix}{{}{7}{Appendix: $ \hat {\mathbf {J}} $ and $ \hat {\mathbf {H}} $ for different variants of LK}{section*.1}{}}
\@writefile{toc}{\contentsline {subsection}{\numberline {\unhbox \voidb@x \hbox {-A}}Jacobian}{7}{subsection.Appendix..1}}
\newlabel{jacobian}{{\unhbox \voidb@x \hbox {-A}}{7}{Jacobian}{subsection.Appendix..1}{}}
\newlabel{eq_jac_falk}{{5}{7}{Jacobian}{equation.Appendix..5}{}}
\newlabel{eq_jac_fclk}{{6}{7}{Jacobian}{equation.Appendix..6}{}}
\newlabel{eq_jac_warped_grad}{{7}{7}{Jacobian}{equation.Appendix..7}{}}
\newlabel{eq_jac_iclk}{{8}{7}{Jacobian}{equation.Appendix..8}{}}
\newlabel{eq_jac_ialk}{{9}{7}{Jacobian}{equation.Appendix..9}{}}
\newlabel{eq_ialk_assumption}{{10}{7}{Jacobian}{equation.Appendix..10}{}}
\newlabel{eq_jac_esm}{{11}{7}{Jacobian}{equation.Appendix..11}{}}
\@writefile{toc}{\contentsline {subsection}{\numberline {\unhbox \voidb@x \hbox {-B}}Hessian}{7}{subsection.Appendix..2}}
\newlabel{hessian}{{\unhbox \voidb@x \hbox {-B}}{7}{Hessian}{subsection.Appendix..2}{}}
\newlabel{eq_hess_basic_gn}{{12}{7}{Hessian}{equation.Appendix..12}{}}
\newlabel{eq_hess_iclk}{{13}{7}{Hessian}{equation.Appendix..13}{}}
\citation{Baker04lucasKanade_paper}
\citation{Dowson08_mi_ict}
\citation{Dame10_mi_thesis}
\bibstyle{unsrt}
\bibdata{E:/UofA/Thesis/References/references}
\bibcite{Baker04lucasKanade_paper}{1}
\bibcite{Wu13benchmark}{2}
\bibcite{Kristan2015_vot15}{3}
\bibcite{Lucas81lucasKanade}{4}
\bibcite{opencv_library}{5}
\bibcite{Bouguet2002Pyramidal}{6}
\bibcite{Quigley09_ros}{7}
\bibcite{hager1998_xvision}{8}
\bibcite{Hager98parametricModels}{9}
\bibcite{Harris11_robotics_sw_survey}{10}
\bibcite{Marchand05_visp}{11}
\bibcite{Dick13nn}{12}
\bibcite{Kwon2014_sl3_aff_pf}{13}
\bibcite{Dame10_mi_thesis}{14}
\bibcite{Szeliski06_fclk_extended}{15}
\bibcite{Shum00_fc}{16}
\bibcite{Benhimane07_esm_journal}{17}
\bibcite{Richa11_scv_original}{18}
\bibcite{Briechle2001_ncc_template_matching}{19}
\bibcite{Scandaroli2012_ncc_tracking}{20}
\bibcite{Dowson08_mi_ict}{21}
\bibcite{Wang2007_ccre_registration}{22}
\bibcite{Richa12_robust_similarity_measures}{23}
\bibcite{Baker01ict}{24}
\bibcite{Isard98condensation}{25}
\bibcite{Zhang2015_rklt}{26}
\bibcite{Muja2009_flann}{27}
\bibcite{Brooks10_esm_ic}{28}
\newlabel{eq_hess_fclk}{{14}{8}{Hessian}{equation.Appendix..14}{}}
\newlabel{eq_pix_hess_falk}{{15}{8}{Hessian}{equation.Appendix..15}{}}
\newlabel{eq_pix_hess_fclk}{{16}{8}{Hessian}{equation.Appendix..16}{}}
\newlabel{eq_warped_pix_hess}{{17}{8}{Hessian}{equation.Appendix..17}{}}
\newlabel{eq_ialk_pix_hess}{{18}{8}{Hessian}{equation.Appendix..18}{}}
\newlabel{eq_hess_esm}{{19}{8}{Hessian}{equation.Appendix..19}{}}
\@writefile{toc}{\contentsline {section}{References}{8}{section*.2}}
